{"total":11929613,"limit":1,"next_page":"/v3/trd-buy?page=next&limit=1&search_after=16372684","items":[{"id":16372684,"number_anno":"16372684-1","name_ru":"Услуги по техническому обслуживанию энергетических котлов/котельного оборудования и аналогичного энергетического оборудования и систем","name_kz":"Услуги по техническому обслуживанию энергетических котлов/котельного оборудования и аналогичного энергетического оборудования и систем","org_bin":"010940004224","ref_trade_methods_id":3,"publish_date":"2026-02-19 08:58:37","start_date":"2026-02-19 09:00:00","end_date":"2026-02-23 09:00:00","total_sum":50000,"ref_buy_status_id":210,"index_date":"2026-02-19T04:00:07.603","system_id":3}]}